<?xml version="1.0" encoding="UTF-8" standalone="no"?>
<!-- Created with Inkscape (http://www.inkscape.org/) -->

<svg
   xmlns:dc="http://purl.org/dc/elements/1.1/"
   xmlns:cc="http://creativecommons.org/ns#"
   xmlns:rdf="http://www.w3.org/1999/02/22-rdf-syntax-ns#"
   xmlns:svg="http://www.w3.org/2000/svg"
   xmlns="http://www.w3.org/2000/svg"
   xmlns:xlink="http://www.w3.org/1999/xlink"
   xmlns:sodipodi="http://sodipodi.sourceforge.net/DTD/sodipodi-0.dtd"
   xmlns:inkscape="http://www.inkscape.org/namespaces/inkscape"
   width="400"
   height="120"
   id="svg2"
   version="1.1"
   inkscape:version="0.91 r13725"
   sodipodi:docname="trash-icon.svg">
  <defs
     id="defs4" />
  <sodipodi:namedview
     id="base"
     pagecolor="#FFFFFF"
     bordercolor="#4C5669"
     borderopacity="1.0"
     inkscape:pageopacity="0.0"
     inkscape:pageshadow="2"
     inkscape:zoom="1.28"
     inkscape:cx="36.193504"
     inkscape:cy="50.945434"
     inkscape:document-units="px"
     inkscape:current-layer="layer1"
     showgrid="true"
     inkscape:window-width="1366"
     inkscape:window-height="721"
     inkscape:window-x="0"
     inkscape:window-y="25"
     inkscape:window-maximized="1"
     showguides="true"
     inkscape:guide-bbox="true"
     inkscape:snap-bbox="true"
     inkscape:bbox-paths="true"
     inkscape:bbox-nodes="true"
     inkscape:snap-bbox-edge-midpoints="true">
    <inkscape:grid
       type="xygrid"
       id="grid2985"
       empspacing="5"
       visible="true"
       enabled="true"
       snapvisiblegridlinesonly="true" />
    <sodipodi:guide
       orientation="1,0"
       position="200,105"
       id="guide3920" />
  </sodipodi:namedview>
  <metadata
     id="metadata7">
    <rdf:RDF>
      <cc:Work
         rdf:about="">
        <dc:format>image/svg+xml</dc:format>
        <dc:type
           rdf:resource="http://purl.org/dc/dcmitype/StillImage" />
        <dc:title />
      </cc:Work>
    </rdf:RDF>
  </metadata>
  <g
     inkscape:label="Ebene 1"
     inkscape:groupmode="layer"
     id="layer1"
     transform="translate(0,-932.36218)">
    <path
       style="opacity:0.45;fill:#000000;fill-opacity:1;stroke:none;stroke-width:0.99999994;stroke-linecap:butt;stroke-linejoin:round;stroke-miterlimit:4;stroke-dasharray:none;stroke-dashoffset:0;stroke-opacity:1"
       d="M 8 6 C 6.892 6 6 6.8919999 6 8 L 6 121 C 6 122.108 6.892 123 8 123 L 392 123 C 393.108 123 394 122.108 394 121 L 394 8 C 394 6.8919999 393.108 6 392 6 L 8 6 z M 8 7 L 392 7 C 392.554 7 393 7.446 393 8 L 393 121 C 393 121.554 392.554 122 392 122 L 8 122 C 7.446 122 7 121.554 7 121 L 7 8 C 7 7.446 7.446 7 8 7 z "
       transform="translate(0,932.36218)"
       id="rect4179-2-0-9-8" />
    <rect
       style="opacity:0.3;fill:#000000;fill-opacity:1;stroke:none;stroke-width:0.99999994;stroke-linecap:butt;stroke-linejoin:round;stroke-miterlimit:4;stroke-dasharray:none;stroke-dashoffset:0;stroke-opacity:1"
       id="rect4179-2-0-9"
       width="386"
       height="115"
       x="7"
       y="939.36218"
       ry="1"
       rx="1" />
    <image
       y="964.36218"
       x="168"
       id="image3917"
       xlink:href="data:image/png;base64,iVBORw0KGgoAAAANSUhEUgAAAQAAAAEACAYAAABccqhmAAAABHNCSVQICAgIfAhkiAAAEIlJREFU eJzt3WuMHWd9x/Hv7MV27CQkbu6iKYikhBIKpZfwggC9pCRAKyFoJSCloKpSERG9qKUqinoTUhXR oqY3elMRFYJKiJLSilYtfZHSAIEQkVIcpUCkAAlxQtK4ju317p59+uKZx2f2eG3vWZ85Z878vx/p aNf2WZ//zszzm2eemXkGJEmSJEmSJEmSJEmSJEmSJEmSJEmSJHVUNesCtHMpJYBdwCKwwPTX50b9 WgU2qsrNad64xuZM3egXgWcBLwNeDlwJ7K1f01qna8BR4Ang88CdwBeAowbB/HBNzZGUUkVu+D8H vB64BFhitusxkXsBR4AvAn9IDoNVg6D7XENzIqW0BLwa+C3gOeR117X1l8hB8EHgNuDbhkC3uXbm QEppmbzXvxU4n5PXW5p6Uac3AD4B/Apw0BDoLtdMx6WUFoA3AO8BzmXzOksj32/UXxPTD4Vq5LUB /BPwDuApQ6CbXCsdVg/4XQv8HXmgr6yv1PiayHvcAbDO5hBovrdNVePrAnmQcqmu6Tbg9qqqBlOo Q2MyADospbQH+BPgp8gNCzY37HXyaHx5lSCYRQ8Aco3NAFgGngJeB9xvL6B7lmZdgLZW7/2/D3gl Jzf+DXKDXwWO11+32vvPQrMXsEw+NXkz8JvkcFKHGADdtQi8hjzoB5sb/yqwUr/WGDb+LihjEYPG 63rgO4DHZliXtrBw5rdoRvYB17F5HZU9/wpwjLz3X6M7jb+pHKIcB84DXlj3atQhBkB3XQBcVX/f HOw7Tg6AVYbH+11WwumZOObUOQZAd+0H9jT+XLr+5Zh/Hhp/kYBLcXvrHMcAumsF+CT5Zh/I3ely 7L/G7Af7xvUQ81VvCHbJOqq+7n+Zk8/9z6sBMPBUoCRJkiRJkiRNkUOyDfWVahX5Mtzd5KvxdjM8 FTdr834moGla296AfPr0aP1ax/kLT3ApcOKe+3OBq4EXAy8iT711OfmKvD2n/GF13QA4TL4P4SHg f4C7gQeAgwSfuizsb17v7ZeBa4CbgBvq7/cx+3n21I5yo9Iq8CjwOeBjwKeAw1VV9amHtS3hNvK6 4S8BLyBPs3UT+U61WUyrrdlK5JuqDgAfAO4g2OxFcX5TTlxd953A28jTbF3IqSfXPNXeINxeooe2 Wt9rwD3A7xNoVuP+/4a1emLNG8iz6j6XPNB30ttGvj/VS/OtTFoyOo8hwNPk3sDtwKN9D4F+/3ac 6PLvBd4O/CKnn1W3NPDyxJsyoUX587Tn2tNklfVeGn95olL5Wl4D4DPAO4Ev9zkE+vubcaLx7yfv 9d9EPp231ay6o7PYlPn11hnedtuF6bY0GaUHMDqHYXmVQPgq8EvAXX0dIOxtANSN/0Lg94CfJo/4 n/jnxtcyc0253bZMtDk6waZ7/v5odvmbQVAmMi2vJeAR4Bbgzj6GQJ8DYC/wbuAtnLrxl4tEyqsL M+tqNpqHBCUAdtWvrwM/D9zbt8OBfv02tfoxWreQn6Szu/lP9detZtUtc+t1cX49TU85PCi9gXIl 6JeAtwLf7FMI9G6Kprrr/zLysVvzEt7mvHqr5PO/RxhOrtmlmXU1O81tZIXhNvI84Nfp2VWhvQqA uvFfTt7z72fzbDrNSTXLdeFdnlVXs1XGhsp9BCvAq4CfrK8n6YVeBQD5GO5nyQ/U2Krxlz3/MeZv Yk3NRnMq9g3gF4Ar+jLFeW8CoF4hV5OP08pkp6MP0zjGfE2prW5oPuPgCuCNbH0h2dzpTQCQV8jP AJfVfx4d8CtP0lnFLr/G1zxd/Crgyj70AvoUAJcBr2Xz71RWWvMxWjZ+7VTZnvYDr6AHZ9F6EQB1 Ev84m/f+zUE/B/s0KWW3/6PkR57NtV4EAPnUzKvZ/KCTxPBcv8f8mqQN8njTVfN+GNCXALgc+F5y l2x01L9c3jvfa0pdswz8AHN+GDD3AVAn8AvI1/2f+GuGe//yGC1pkirg+Wy+zHzuzH0AkH+Ha8kr ojT0ckdfubbfAFAbriJPITe3+hAAS+QJPsrvUrr/a3h5r9p1AZt7nnOnDwGwSB4DKDYYnq+18atN i8Alsy7ibPQhACryjD9FCYAyk4/UlgXmvAewdOa3dF65fbOc529e8usAoNo0oDsPjdmRuT6FASfu /f8Rci+g3M/fnMpLaksC7q+q6pFZFyJJkiRJkiRJkrTZ3J8GHFf9vIDXkid1kJoS8Kmqqu6bdSHT 0ocLgcZ1LvAO4JpZF6LO2QDeBRgAPVeuHpSawl04FjUAmsKtdKmIHACjDwiVyhOgw4gcALD5keDh Vr5OUu4jCcMAGD4g1HkDVZ4hEUb0AGg+8WUVAyA6ewDBNGcQ9vZhhTsM9FSYtJkBICkGA0AKzACQ AjMApMAMACkwA0AKzACQAjMApMAMACmw6JcCt6lcYnwMOEJe1ueRH2M+6+BN5MtejwOHyROknE9+ zNWsa4PhTVqH6+/PBXaTH8YZbhq7NhkA7VgD/hv4Z+B+4BC54V8BvIL8KLMLmM3GPAAeBD5Bnvrq ibqOS4DrgBvrOmdRWwIeA/4NuAt4tK73QuBFdW3fTQ4CTYABMFkJOAq8H/gocKiqqhPXlqeUHgQ+ S258v0qel3CaDW0N+DjwV+SGlqqqKrU9BNxLDq23A9cz3e1jANwN/BHwVWDQqO0bwJfIy+2twOuZ 84dydkUXunt9sgq8D/gA8FSz8QNUVUVVVevkhnYreUOf1s0nA+AO4L3AwaqqTjT+Rm0D4GvAu4FP M73HqyfyMvkd4IGqqgZb1JaAbwN/DHyEYLfttsUAmJxE7rZ+DFhvbsCj6n97kBwWR6dU21eAvwSO bqO2J4E/BR5nOgF1iNywHztTbVVVrQB/DRyYUm29ZgBMzgq58Z+2gRX1e+4mjxG0bQD8I/DEGLV9 DfiPdssCciO+k/yY7e3+zFPk3sy0eii9ZQBMzreAA2NsxJDPEHyOPA7Q5ljAMeDzjLfHLMfkiXZr WyePi2y7S18v43vIh1xuw2fBhTc5T5JP942jHNfuIg+4tdXQDpEHJLf9A/V7v0neRto8dbkOPLyD nztC7nV14bTq3HLBTc7Y3dG6kT1NPse9h/ZCoEx6Oq4N4BzarQ0aZyPGsEoOgXPozvULc8fTgLNX kQMAhtOTD2ZXzialtt0MLx7qyuh7Rd77n8Pwoiuf8TAmU3P2yoa8q3517Wq3RYa1tdkL2IlFhstu mW7VNhcMgG6oyI1rme41sorc0JbqV5e2mVJbWW5dqm0uuMC6oZwFWCSvk64FQFdrg+GDXkt9GoML rDvKhtz2KcGdKLV1NQBGX9omA6B7ur4Bd7E+G/8OGQDqCxv/DhgAUmAGgBSYASAFZgBIgRkAUmAG gBSYASAFZgBIgRkAUmAGgBSYASAFZgBIgRkAUmAGgBSYASAFZgBIgRkAUmAGgBSYASAFZgBIgRkA UmAGgBSYASAFZgBIgRkAUmAGgBSYASAFZgBIgRkAUmAGgBSYASAFZgBIgRkAUmAGgBSYASAFZgBI gRkAUmAGgBSYASAFZgBIgRkAUmAGgBSYASAFZgBIgRkAUmAGgBSYASAFZgBIgRkAUmAGgBSYASAF ZgBIgRkAUmAGgBSYASAFZgBIgRkAUmAGgBSYASAFZgBIgRkAUmAGgBSYASAFZgBIgRkAUmAGgBSY ASAFZgBIgRkAUmAGgBSYASAFZgBIgRkAUmAGgBSYASAFZgBIgRkAUmAGgBSYASAFZgBIgRkAUmAG gBSYASAFZgBIgRkAUmAGgBSYASAFZgBIgRkAUmAGgBSYASAFZgBIgRkAUmAGgBSYASAFZgBIgRkA UmAGgBSYASAFZgBIgRkAUmAGgBSYASAFZgBonqVZFzDvDIDZWwaqWRcxhxaA3bMuYt4ZAJOzizGX Z0oJYP+4P7cD57KzxnIe7ddWAbvrZTGOXcDFky8nFgNgci4FLhpzQ14Enlt/bdP5wBXj1Fa/93uA PS3VVCwDV43zA3VtzwQuaKOgSAyAybkIeAnb7M7XG/HFwI9t92fOwm7g5YwXNOcAPwEstVLR0AK5 tnPG/JnXjPkz2oIBMDlLwOuAS7e5p10CbgaubrOo2gJwI3DNdmpLKVXATcD1tB9OFfBi4Ib6c89U G+SeyZtov+fUewbA5FTkxvzLwIWna2gppRIWt9D+Hra4CPgN4NlnqK00yFuBfdMpjV3A24DvTymd cpus634O8F7giuY/NV4agwEwWQvADcAfAD+YUtqTUqpSStRfF1NKlwK/BryHPADY3Ou1uSFXwPPJ jeeGlNK+lNJCXRv1988A3gz8Lfm4vGrU0nZtlwG3ATenlPbXy4rGsttHPlx6P3AdJ/dMbPw7MK29 TyQL5A30h4D7gC8AjwJ7gecBPww8m9x9HW38G/WrTVcDtwMPAPcCDzIcjHwpOSR2naK2tveyF5N7 KW8BPgN8BVgDnsVwme5t1NYMpUnUtwEcPoufnzsRA6DtRlY2wr3kPdaN9d9X5OW91Z6rbMCD+tVm I0vkkfeXkAff0hlqY8q1LZDD6IWNvy+1jYZSqW29ru1s12sCVs/y/5grEQ8BjgJPtvwZA/Kea63+ 8xJbh21zIy7vn8SGfDqlwZTP2k5t5f3rLdeW6s9YrWtbZHih1FaNPzFc1pOobYA9gN5bAw62/Bmp /pzjDEO27MXSyPs2Gu89Tt4I21Qa9HGGhyFLdZ2je/fR2ta3eM8kNQOg1LZ8mtrK73G8rvNsA2AV +NZZ/h9zJWIADMjHv202tLJnWmn8eRfDjbpqvKdsxCvkjXgag1mD+jNLHbvY3M0uwdSsbZX2xydg 2A0ve/wNhgFVamsGxQqTC87/BR6fwP8zNyIGwAZwD8O9TJufs07eQMuedKnxmWUjXqtrKXuwaQRA +ewVhl3o5ZHamocxpUs+rdpKQJVlWGoroVCCc3WCtSXgQP25YYQLgKqqSCkdAB4Grmz540rDL41p keEhQdnQy2sae9emEgKlkZXamj2A0tCmfY69LJtS22gPoDkoOanQHAB3158XRrgAqD0O/CfwRk4e YJq05sY8+lnT2uOfymhDm9Y1Cdsxenak7dqeIPcMQ4l4FgDy3vjvgSMMG2Xbl7yO7rmm1aXejq1q m3U4NbVdWwI+DRysqlh3ZocMgHol301e6RXD7qVi+j/gHwjW/YegAVA7BvwZuRdgAMS1AfwrcCDa 3h8CB0C9sj8LfKj+q7DLIrAEfB34IMOLtkKJvtGvAe8DvszmEXrFcAT4C+AbEff+EHyDr1f6QeC3 gUcIvjyCWQM+DPx7VVVdGeycuvAbfB0C9wG/CzyGYwERrAEfJ99aHLLrX7ix1+qJKF4KvIs8v5/6 p1xm/FHgz4HDUbv+RezffkQ9G861wDvJ005N4/oATUcCDgF/A3wEWIne+MGN+ySNyTrfTJ548hm4 nOZZueT5v8gDvl8EBjb+zKWwhToElsiTUryBPBvNPlxe86Tckv0gcAfwL8AhG/5mLo3TqINgN3ma rFeSp6S6jOGUWS6/bil7+6fJp3Y/CdwFPBF5pP903IC3oQ6CRfKDKK4ijxN8FzkMLsCzKbN2lHyD 18PA/eTG/zj5ON+GfxoGwJjqMCj3D5TbVDVbzclV8gqyqy9JkiRJkiRJkiRJkiRJkiRJkiRJkiRJ kiRJkiRJkjrs/wF74LkrtNf36QAAAABJRU5ErkJggg== "
       height="64"
       width="64"
       style="fill:#000000;fill-opacity:1" />
  </g>
</svg>
